Nguyen Van A
2002-08-12
Dia chi
Anh_dai_dien.png
class 2
Nguyễn Văn C
11-1-2001
Dia chi
135836957_767516130781026_8879711250593781858_n.jpg
class 1
Nguyễn Bá B
2001-08-2
Hà Nội
269414892_501629171197693_3107520928958654736_n.jpg
AT16G